[Info]
Version 1
Dimension 2
NumNodes 85
Num3DElements 0
Num2DElements 64
Num1DElements 16
NumNodeBC 39
NumSaveNodes 0
NumSaveElements 0
Num 2d-line      : 0
Num 2d-line,quad : 0
Num 3d-line      : 0
Num 3d-line,quad : 0
Num triangle     : 0
Num triangle,quad: 0
Num quadr        : 64
Num quadr,quad   : 0
Num tetra        : 0
Num tetra,quad   : 0
Num brick        : 0
Num brick,quad   : 0
Num pyramid      : 0
Num pyramid,quad : 0
Num wedge        : 0
Num wedge,quad   : 0

[Nodes]
#NodeNr x-coord y-coord z-coord
       1  0.0000000000000e+00  0.0000000000000e+00  0.0000000000000e+00
       2  1.0000000000000e-02  0.0000000000000e+00  0.0000000000000e+00
       3  6.2500000000000e-04  0.0000000000000e+00  0.0000000000000e+00
       4  1.2500000000000e-03  0.0000000000000e+00  0.0000000000000e+00
       5  1.8750000000000e-03  0.0000000000000e+00  0.0000000000000e+00
       6  2.5000000000000e-03  0.0000000000000e+00  0.0000000000000e+00
       7  3.1250000000000e-03  0.0000000000000e+00  0.0000000000000e+00
       8  3.7500000000000e-03  0.0000000000000e+00  0.0000000000000e+00
       9  4.3750000000000e-03  0.0000000000000e+00  0.0000000000000e+00
      10  5.0000000000000e-03  0.0000000000000e+00  0.0000000000000e+00
      11  5.6250000000000e-03  0.0000000000000e+00  0.0000000000000e+00
      12  6.2500000000000e-03  0.0000000000000e+00  0.0000000000000e+00
      13  6.8750000000000e-03  0.0000000000000e+00  0.0000000000000e+00
      14  7.5000000000000e-03  0.0000000000000e+00  0.0000000000000e+00
      15  8.1250000000000e-03  0.0000000000000e+00  0.0000000000000e+00
      16  8.7500000000000e-03  0.0000000000000e+00  0.0000000000000e+00
      17  9.3750000000000e-03  0.0000000000000e+00  0.0000000000000e+00
      18  1.0000000000000e-02  5.0000000000000e-04  0.0000000000000e+00
      19  1.0000000000000e-02  1.2500000000000e-04  0.0000000000000e+00
      20  1.0000000000000e-02  2.5000000000000e-04  0.0000000000000e+00
      21  1.0000000000000e-02  3.7500000000000e-04  0.0000000000000e+00
      22  0.0000000000000e+00  5.0000000000000e-04  0.0000000000000e+00
      23  9.3750000000000e-03  5.0000000000000e-04  0.0000000000000e+00
      24  8.7500000000000e-03  5.0000000000000e-04  0.0000000000000e+00
      25  8.1250000000000e-03  5.0000000000000e-04  0.0000000000000e+00
      26  7.5000000000000e-03  5.0000000000000e-04  0.0000000000000e+00
      27  6.8750000000000e-03  5.0000000000000e-04  0.0000000000000e+00
      28  6.2500000000000e-03  5.0000000000000e-04  0.0000000000000e+00
      29  5.6250000000000e-03  5.0000000000000e-04  0.0000000000000e+00
      30  5.0000000000000e-03  5.0000000000000e-04  0.0000000000000e+00
      31  4.3750000000000e-03  5.0000000000000e-04  0.0000000000000e+00
      32  3.7500000000000e-03  5.0000000000000e-04  0.0000000000000e+00
      33  3.1250000000000e-03  5.0000000000000e-04  0.0000000000000e+00
      34  2.5000000000000e-03  5.0000000000000e-04  0.0000000000000e+00
      35  1.8750000000000e-03  5.0000000000000e-04  0.0000000000000e+00
      36  1.2500000000000e-03  5.0000000000000e-04  0.0000000000000e+00
      37  6.2500000000000e-04  5.0000000000000e-04  0.0000000000000e+00
      38  0.0000000000000e+00  3.7500000000000e-04  0.0000000000000e+00
      39  0.0000000000000e+00  2.5000000000000e-04  0.0000000000000e+00
      40  0.0000000000000e+00  1.2500000000000e-04  0.0000000000000e+00
      41  6.2500000000000e-04  1.2500000000000e-04  0.0000000000000e+00
      42  6.2500000000000e-04  2.5000000000000e-04  0.0000000000000e+00
      43  6.2500000000000e-04  3.7500000000000e-04  0.0000000000000e+00
      44  1.2500000000000e-03  1.2500000000000e-04  0.0000000000000e+00
      45  1.2500000000000e-03  2.5000000000000e-04  0.0000000000000e+00
      46  1.2500000000000e-03  3.7500000000000e-04  0.0000000000000e+00
      47  1.8750000000000e-03  1.2500000000000e-04  0.0000000000000e+00
      48  1.8750000000000e-03  2.5000000000000e-04  0.0000000000000e+00
      49  1.8750000000000e-03  3.7500000000000e-04  0.0000000000000e+00
      50  2.5000000000000e-03  1.2500000000000e-04  0.0000000000000e+00
      51  2.5000000000000e-03  2.5000000000000e-04  0.0000000000000e+00
      52  2.5000000000000e-03  3.7500000000000e-04  0.0000000000000e+00
      53  3.1250000000000e-03  1.2500000000000e-04  0.0000000000000e+00
      54  3.1250000000000e-03  2.5000000000000e-04  0.0000000000000e+00
      55  3.1250000000000e-03  3.7500000000000e-04  0.0000000000000e+00
      56  3.7500000000000e-03  1.2500000000000e-04  0.0000000000000e+00
      57  3.7500000000000e-03  2.5000000000000e-04  0.0000000000000e+00
      58  3.7500000000000e-03  3.7500000000000e-04  0.0000000000000e+00
      59  4.3750000000000e-03  1.2500000000000e-04  0.0000000000000e+00
      60  4.3750000000000e-03  2.5000000000000e-04  0.0000000000000e+00
      61  4.3750000000000e-03  3.7500000000000e-04  0.0000000000000e+00
      62  5.0000000000000e-03  1.2500000000000e-04  0.0000000000000e+00
      63  5.0000000000000e-03  2.5000000000000e-04  0.0000000000000e+00
      64  5.0000000000000e-03  3.7500000000000e-04  0.0000000000000e+00
      65  5.6250000000000e-03  1.2500000000000e-04  0.0000000000000e+00
      66  5.6250000000000e-03  2.5000000000000e-04  0.0000000000000e+00
      67  5.6250000000000e-03  3.7500000000000e-04  0.0000000000000e+00
      68  6.2500000000000e-03  1.2500000000000e-04  0.0000000000000e+00
      69  6.2500000000000e-03  2.5000000000000e-04  0.0000000000000e+00
      70  6.2500000000000e-03  3.7500000000000e-04  0.0000000000000e+00
      71  6.8750000000000e-03  1.2500000000000e-04  0.0000000000000e+00
      72  6.8750000000000e-03  2.5000000000000e-04  0.0000000000000e+00
      73  6.8750000000000e-03  3.7500000000000e-04  0.0000000000000e+00
      74  7.5000000000000e-03  1.2500000000000e-04  0.0000000000000e+00
      75  7.5000000000000e-03  2.5000000000000e-04  0.0000000000000e+00
      76  7.5000000000000e-03  3.7500000000000e-04  0.0000000000000e+00
      77  8.1250000000000e-03  1.2500000000000e-04  0.0000000000000e+00
      78  8.1250000000000e-03  2.5000000000000e-04  0.0000000000000e+00
      79  8.1250000000000e-03  3.7500000000000e-04  0.0000000000000e+00
      80  8.7500000000000e-03  1.2500000000000e-04  0.0000000000000e+00
      81  8.7500000000000e-03  2.5000000000000e-04  0.0000000000000e+00
      82  8.7500000000000e-03  3.7500000000000e-04  0.0000000000000e+00
      83  9.3750000000000e-03  1.2500000000000e-04  0.0000000000000e+00
      84  9.3750000000000e-03  2.5000000000000e-04  0.0000000000000e+00
      85  9.3750000000000e-03  3.7500000000000e-04  0.0000000000000e+00

[3D Elements]
#ElemNr  ElemType  NrOfNodes  Level
#Node1 Node2 ... NodeNrOfNodes

[2D Elements]
#ElemNr  ElemType  NrOfNodes  Level
#Node1 Node2 ... NodeNrOfNodes
1 6 4 piezo_ax
1 3 41 40
2 6 4 piezo_ax
3 4 44 41
3 6 4 piezo_ax
4 5 47 44
4 6 4 piezo_ax
5 6 50 47
5 6 4 piezo_ax
6 7 53 50
6 6 4 piezo_ax
7 8 56 53
7 6 4 piezo_ax
8 9 59 56
8 6 4 piezo_ax
9 10 62 59
9 6 4 piezo_ax
10 11 65 62
10 6 4 piezo_ax
11 12 68 65
11 6 4 piezo_ax
12 13 71 68
12 6 4 piezo_ax
13 14 74 71
13 6 4 piezo_ax
14 15 77 74
14 6 4 piezo_ax
15 16 80 77
15 6 4 piezo_ax
16 17 83 80
16 6 4 piezo_ax
17 2 19 83
17 6 4 piezo_ax
40 41 42 39
18 6 4 piezo_ax
41 44 45 42
19 6 4 piezo_ax
44 47 48 45
20 6 4 piezo_ax
47 50 51 48
21 6 4 piezo_ax
50 53 54 51
22 6 4 piezo_ax
53 56 57 54
23 6 4 piezo_ax
56 59 60 57
24 6 4 piezo_ax
59 62 63 60
25 6 4 piezo_ax
62 65 66 63
26 6 4 piezo_ax
65 68 69 66
27 6 4 piezo_ax
68 71 72 69
28 6 4 piezo_ax
71 74 75 72
29 6 4 piezo_ax
74 77 78 75
30 6 4 piezo_ax
77 80 81 78
31 6 4 piezo_ax
80 83 84 81
32 6 4 piezo_ax
83 19 20 84
33 6 4 piezo_ax
39 42 43 38
34 6 4 piezo_ax
42 45 46 43
35 6 4 piezo_ax
45 48 49 46
36 6 4 piezo_ax
48 51 52 49
37 6 4 piezo_ax
51 54 55 52
38 6 4 piezo_ax
54 57 58 55
39 6 4 piezo_ax
57 60 61 58
40 6 4 piezo_ax
60 63 64 61
41 6 4 piezo_ax
63 66 67 64
42 6 4 piezo_ax
66 69 70 67
43 6 4 piezo_ax
69 72 73 70
44 6 4 piezo_ax
72 75 76 73
45 6 4 piezo_ax
75 78 79 76
46 6 4 piezo_ax
78 81 82 79
47 6 4 piezo_ax
81 84 85 82
48 6 4 piezo_ax
84 20 21 85
49 6 4 piezo_ax
38 43 37 22
50 6 4 piezo_ax
43 46 36 37
51 6 4 piezo_ax
46 49 35 36
52 6 4 piezo_ax
49 52 34 35
53 6 4 piezo_ax
52 55 33 34
54 6 4 piezo_ax
55 58 32 33
55 6 4 piezo_ax
58 61 31 32
56 6 4 piezo_ax
61 64 30 31
57 6 4 piezo_ax
64 67 29 30
58 6 4 piezo_ax
67 70 28 29
59 6 4 piezo_ax
70 73 27 28
60 6 4 piezo_ax
73 76 26 27
61 6 4 piezo_ax
76 79 25 26
62 6 4 piezo_ax
79 82 24 25
63 6 4 piezo_ax
82 85 23 24
64 6 4 piezo_ax
85 21 18 23

[1D Elements]
#ElemNr  ElemType  NrOfNodes  Level
#Node1 Node2 ... NodeNrOfNodes
65 100 2 surf
18 23
66 100 2 surf
23 24
67 100 2 surf
24 25
68 100 2 surf
25 26
69 100 2 surf
26 27
70 100 2 surf
27 28
71 100 2 surf
28 29
72 100 2 surf
29 30
73 100 2 surf
30 31
74 100 2 surf
31 32
75 100 2 surf
32 33
76 100 2 surf
33 34
77 100 2 surf
34 35
78 100 2 surf
35 36
79 100 2 surf
36 37
80 100 2 surf
37 22

[Node BC]
#NodeNr Level
       1 ep-lower
       2 ep-lower
       3 ep-lower
       4 ep-lower
       5 ep-lower
       6 ep-lower
       7 ep-lower
       8 ep-lower
       9 ep-lower
      10 ep-lower
      11 ep-lower
      12 ep-lower
      13 ep-lower
      14 ep-lower
      15 ep-lower
      16 ep-lower
      17 ep-lower
      18 ep-top
      22 ep-top
      23 ep-top
      24 ep-top
      25 ep-top
      26 ep-top
      27 ep-top
      28 ep-top
      29 ep-top
      30 ep-top
      31 ep-top
      32 ep-top
      33 ep-top
      34 ep-top
      35 ep-top
      36 ep-top
      37 ep-top
       1 axisBoun
      22 axisBoun
      38 axisBoun
      39 axisBoun
      40 axisBoun

[Save Nodes]
#NodeNr Level

[Save Elements]
#ElemNr Level

