[Info]
Version 1
Dimension 3
NumNodes 66
Num3DElements 192
Num2DElements 0
Num1DElements 0
NumNodeBC 10
NumSaveNodes 0
NumSaveElements 0
Num 2d-line      : 0
Num 2d-line,quad : 0
Num 3d-line      : 0
Num 3d-line,quad : 0
Num triangle     : 0
Num triangle,quad: 0
Num quadr        : 0
Num quadr,quad   : 0
Num tetra        : 192
Num tetra,quad   : 0
Num brick        : 0
Num brick,quad   : 0
Num pyramid      : 0
Num pyramid,quad : 0
Num wedge        : 0
Num wedge,quad   : 0

[Nodes]
#NodeNr x-coord y-coord z-coord
       1  0.0000000000000e+00  0.0000000000000e+00 -1.0000000000000e+00 
       2  0.0000000000000e+00  5.0000000000000e-01 -1.0000000000000e+00 
       3  0.0000000000000e+00  2.5000000000000e-01 -5.0000000000000e-01 
       4  5.0000000000000e-01  2.5000000000000e-01 -1.0000000000000e+00 
       5  5.0000000000000e-01  0.0000000000000e+00 -5.0000000000000e-01 
       6  5.0000000000000e-01  5.0000000000000e-01 -5.0000000000000e-01 
       7  0.0000000000000e+00  7.5000000000000e-01 -5.0000000000000e-01 
       8  5.0000000000000e-01  7.5000000000000e-01 -1.0000000000000e+00 
       9  0.0000000000000e+00  0.0000000000000e+00  0.0000000000000e+00 
      10  1.0000000000000e+00  0.0000000000000e+00 -1.0000000000000e+00 
      11  0.0000000000000e+00  1.0000000000000e+00 -1.0000000000000e+00 
      12  0.0000000000000e+00  5.0000000000000e-01  0.0000000000000e+00 
      13  1.0000000000000e+00  5.0000000000000e-01 -1.0000000000000e+00 
      14  1.0000000000000e+00  2.5000000000000e-01 -5.0000000000000e-01 
      15  5.0000000000000e-01  2.5000000000000e-01  0.0000000000000e+00 
      16  5.0000000000000e-01  1.0000000000000e+00 -5.0000000000000e-01 
      17  5.0000000000000e-01  7.5000000000000e-01  0.0000000000000e+00 
      18  1.0000000000000e+00  7.5000000000000e-01 -5.0000000000000e-01 
      19  1.0000000000000e+00  0.0000000000000e+00  0.0000000000000e+00 
      20  0.0000000000000e+00  1.0000000000000e+00  0.0000000000000e+00 
      21  1.0000000000000e+00  1.0000000000000e+00 -1.0000000000000e+00 
      22  1.0000000000000e+00  5.0000000000000e-01  0.0000000000000e+00 
      23  1.5000000000000e+00  2.5000000000000e-01 -1.0000000000000e+00 
      24  0.0000000000000e+00  2.5000000000000e-01  5.0000000000000e-01 
      25  1.5000000000000e+00  0.0000000000000e+00 -5.0000000000000e-01 
      26  5.0000000000000e-01  0.0000000000000e+00  5.0000000000000e-01 
      27  1.5000000000000e+00  2.5000000000000e-01 -5.0000000000000e-01 
      28  5.0000000000000e-01  5.0000000000000e-01  5.0000000000000e-01 
      29  1.5000000000000e+00  5.0000000000000e-01 -5.0000000000000e-01 
      30  0.0000000000000e+00  7.5000000000000e-01  5.0000000000000e-01 
      31  1.5000000000000e+00  7.5000000000000e-01 -1.0000000000000e+00 
      32  1.0000000000000e+00  1.0000000000000e+00  0.0000000000000e+00 
      33  5.0000000000000e-01  7.5000000000000e-01  5.0000000000000e-01 
      34  1.5000000000000e+00  2.5000000000000e-01  0.0000000000000e+00 
      35  1.0000000000000e+00  2.5000000000000e-01  5.0000000000000e-01 
      36  5.0000000000000e-01  1.0000000000000e+00  5.0000000000000e-01 
      37  1.5000000000000e+00  1.0000000000000e+00 -5.0000000000000e-01 
      38  1.5000000000000e+00  7.5000000000000e-01  0.0000000000000e+00 
      39  1.0000000000000e+00  7.5000000000000e-01  5.0000000000000e-01 
      40  0.0000000000000e+00  0.0000000000000e+00  1.0000000000000e+00 
      41  2.0000000000000e+00  0.0000000000000e+00 -1.0000000000000e+00 
      42  0.0000000000000e+00  5.0000000000000e-01  1.0000000000000e+00 
      43  2.0000000000000e+00  5.0000000000000e-01 -1.0000000000000e+00 
      44  2.0000000000000e+00  2.5000000000000e-01 -5.0000000000000e-01 
      45  5.0000000000000e-01  2.5000000000000e-01  1.0000000000000e+00 
      46  1.5000000000000e+00  0.0000000000000e+00  5.0000000000000e-01 
      47  1.5000000000000e+00  5.0000000000000e-01  5.0000000000000e-01 
      48  5.0000000000000e-01  7.5000000000000e-01  1.0000000000000e+00 
      49  2.0000000000000e+00  7.5000000000000e-01 -5.0000000000000e-01 
      50  2.0000000000000e+00  0.0000000000000e+00  0.0000000000000e+00 
      51  1.0000000000000e+00  0.0000000000000e+00  1.0000000000000e+00 
      52  0.0000000000000e+00  1.0000000000000e+00  1.0000000000000e+00 
      53  2.0000000000000e+00  1.0000000000000e+00 -1.0000000000000e+00 
      54  1.5000000000000e+00  7.5000000000000e-01  5.0000000000000e-01 
      55  2.0000000000000e+00  5.0000000000000e-01  0.0000000000000e+00 
      56  1.0000000000000e+00  5.0000000000000e-01  1.0000000000000e+00 
      57  1.5000000000000e+00  1.0000000000000e+00  5.0000000000000e-01 
      58  2.0000000000000e+00  1.0000000000000e+00  0.0000000000000e+00 
      59  1.0000000000000e+00  1.0000000000000e+00  1.0000000000000e+00 
      60  2.0000000000000e+00  2.5000000000000e-01  5.0000000000000e-01 
      61  1.5000000000000e+00  2.5000000000000e-01  1.0000000000000e+00 
      62  2.0000000000000e+00  7.5000000000000e-01  5.0000000000000e-01 
      63  1.5000000000000e+00  7.5000000000000e-01  1.0000000000000e+00 
      64  2.0000000000000e+00  0.0000000000000e+00  1.0000000000000e+00 
      65  2.0000000000000e+00  5.0000000000000e-01  1.0000000000000e+00 
      66  2.0000000000000e+00  1.0000000000000e+00  1.0000000000000e+00 


[1D Elements]
#ElemNr  ElemType  NrOfNodes  Level
#Node1 Node2 ... NodeNrOfNodes

[2D Elements]
#ElemNr  ElemType  NrOfNodes  Level
#Node1 Node2 ... NodeNrOfNodes


[3D Elements]
#ElemNr  ElemType  NrOfNodes  Level
#Node1 Node2 ... NodeNrOfNodes
1 8 4 mech
22 15 19 35
2 8 4 mech
12 24 9 15
3 8 4 mech
42 45 40 24
4 8 4 mech
56 35 51 45
5 8 4 mech
22 15 35 28
6 8 4 mech
42 45 24 28
7 8 4 mech
22 15 28 12
8 8 4 mech
42 45 28 56
9 8 4 mech
24 42 28 12
10 8 4 mech
15 28 12 24
11 8 4 mech
45 28 56 35
12 8 4 mech
15 28 24 26
13 8 4 mech
15 28 26 35
14 8 4 mech
28 24 26 45
15 8 4 mech
28 26 35 45
16 8 4 mech
24 15 26 9
17 8 4 mech
26 15 35 19
18 8 4 mech
26 24 9 40
19 8 4 mech
26 15 19 9
20 8 4 mech
26 24 40 45
21 8 4 mech
35 22 28 56
22 8 4 mech
26 35 45 51
23 8 4 mech
26 35 51 19
24 8 4 mech
45 26 51 40
25 8 4 mech
66 59 57 54
26 8 4 mech
59 32 57 54
27 8 4 mech
32 58 57 54
28 8 4 mech
58 66 57 54
29 8 4 mech
59 66 63 54
30 8 4 mech
66 65 63 54
31 8 4 mech
65 56 63 54
32 8 4 mech
56 59 63 54
33 8 4 mech
32 59 39 54
34 8 4 mech
59 56 39 54
35 8 4 mech
56 22 39 54
36 8 4 mech
22 32 39 54
37 8 4 mech
32 22 38 54
38 8 4 mech
22 55 38 54
39 8 4 mech
55 58 38 54
40 8 4 mech
58 32 38 54
41 8 4 mech
66 58 62 54
42 8 4 mech
58 55 62 54
43 8 4 mech
55 65 62 54
44 8 4 mech
65 66 62 54
45 8 4 mech
56 65 47 54
46 8 4 mech
65 55 47 54
47 8 4 mech
55 22 47 54
48 8 4 mech
22 56 47 54
49 8 4 mech
59 52 36 33
50 8 4 mech
52 20 36 33
51 8 4 mech
20 32 36 33
52 8 4 mech
32 59 36 33
53 8 4 mech
52 59 48 33
54 8 4 mech
59 56 48 33
55 8 4 mech
56 42 48 33
56 8 4 mech
42 52 48 33
57 8 4 mech
20 52 30 33
58 8 4 mech
52 42 30 33
59 8 4 mech
42 12 30 33
60 8 4 mech
12 20 30 33
61 8 4 mech
20 12 17 33
62 8 4 mech
12 22 17 33
63 8 4 mech
22 32 17 33
64 8 4 mech
32 20 17 33
65 8 4 mech
59 32 39 33
66 8 4 mech
32 22 39 33
67 8 4 mech
22 56 39 33
68 8 4 mech
56 59 39 33
69 8 4 mech
42 56 28 33
70 8 4 mech
56 22 28 33
71 8 4 mech
22 12 28 33
72 8 4 mech
12 42 28 33
73 8 4 mech
50 55 34 60
74 8 4 mech
19 22 35 34
75 8 4 mech
56 61 51 35
76 8 4 mech
65 60 64 61
77 8 4 mech
55 34 60 47
78 8 4 mech
56 61 35 47
79 8 4 mech
55 34 47 22
80 8 4 mech
56 61 47 65
81 8 4 mech
35 56 47 22
82 8 4 mech
34 47 22 35
83 8 4 mech
61 47 65 60
84 8 4 mech
34 47 35 46
85 8 4 mech
34 47 46 60
86 8 4 mech
47 35 46 61
87 8 4 mech
47 46 60 61
88 8 4 mech
35 34 46 19
89 8 4 mech
46 34 60 50
90 8 4 mech
46 35 19 51
91 8 4 mech
46 34 50 19
92 8 4 mech
46 35 51 61
93 8 4 mech
60 55 47 65
94 8 4 mech
46 60 61 64
95 8 4 mech
46 60 64 50
96 8 4 mech
61 46 64 51
97 8 4 mech
22 19 15 14
98 8 4 mech
13 10 14 4
99 8 4 mech
9 3 12 15
100 8 4 mech
2 3 1 4
101 8 4 mech
19 15 14 5
102 8 4 mech
9 3 15 5
103 8 4 mech
19 15 5 9
104 8 4 mech
9 3 5 1
105 8 4 mech
3 5 1 4
106 8 4 mech
3 5 4 6
107 8 4 mech
3 5 6 15
108 8 4 mech
5 4 6 14
109 8 4 mech
5 6 15 14
110 8 4 mech
5 1 4 10
111 8 4 mech
4 3 6 2
112 8 4 mech
5 4 14 10
113 8 4 mech
6 15 14 22
114 8 4 mech
6 4 2 13
115 8 4 mech
6 15 22 12
116 8 4 mech
6 4 13 14
117 8 4 mech
6 15 12 3
118 8 4 mech
14 19 5 10
119 8 4 mech
3 6 2 12
120 8 4 mech
14 6 22 13
121 8 4 mech
55 38 58 49
122 8 4 mech
22 18 32 38
123 8 4 mech
53 31 43 49
124 8 4 mech
21 18 13 31
125 8 4 mech
55 38 49 29
126 8 4 mech
53 31 49 37
127 8 4 mech
55 38 29 22
128 8 4 mech
53 31 37 21
129 8 4 mech
49 53 37 58
130 8 4 mech
38 29 22 18
131 8 4 mech
31 37 21 18
132 8 4 mech
37 49 58 38
133 8 4 mech
38 29 18 37
134 8 4 mech
38 29 37 49
135 8 4 mech
29 18 37 31
136 8 4 mech
29 37 49 31
137 8 4 mech
37 21 18 32
138 8 4 mech
58 37 38 32
139 8 4 mech
18 38 37 32
140 8 4 mech
49 55 29 43
141 8 4 mech
29 49 43 31
142 8 4 mech
43 29 31 13
143 8 4 mech
29 31 13 18
144 8 4 mech
13 29 18 22
145 8 4 mech
22 17 32 18
146 8 4 mech
12 7 20 17
147 8 4 mech
21 8 13 18
148 8 4 mech
11 7 2 8
149 8 4 mech
22 17 18 6
150 8 4 mech
21 8 18 16
151 8 4 mech
22 17 6 12
152 8 4 mech
21 8 16 11
153 8 4 mech
18 21 16 32
154 8 4 mech
17 6 12 7
155 8 4 mech
8 16 11 7
156 8 4 mech
16 18 32 17
157 8 4 mech
17 6 7 16
158 8 4 mech
17 6 16 18
159 8 4 mech
6 7 16 8
160 8 4 mech
6 16 18 8
161 8 4 mech
16 11 7 20
162 8 4 mech
32 16 17 20
163 8 4 mech
7 17 16 20
164 8 4 mech
18 22 6 13
165 8 4 mech
6 18 13 8
166 8 4 mech
13 6 8 2
167 8 4 mech
6 8 2 7
168 8 4 mech
2 6 7 12
169 8 4 mech
13 43 29 27
170 8 4 mech
43 55 29 27
171 8 4 mech
55 22 29 27
172 8 4 mech
22 13 29 27
173 8 4 mech
43 13 23 27
174 8 4 mech
13 10 23 27
175 8 4 mech
10 41 23 27
176 8 4 mech
41 43 23 27
177 8 4 mech
55 43 44 27
178 8 4 mech
43 41 44 27
179 8 4 mech
41 50 44 27
180 8 4 mech
50 55 44 27
181 8 4 mech
55 50 34 27
182 8 4 mech
50 19 34 27
183 8 4 mech
19 22 34 27
184 8 4 mech
22 55 34 27
185 8 4 mech
13 22 14 27
186 8 4 mech
22 19 14 27
187 8 4 mech
19 10 14 27
188 8 4 mech
10 13 14 27
189 8 4 mech
41 10 25 27
190 8 4 mech
10 19 25 27
191 8 4 mech
19 50 25 27
192 8 4 mech
50 41 25 27

[Node BC]
#NodeNr Level
1 support
11 support
19 load2
32 load1
40 support
41 support
52 support
53 support
64 support
66 support

[Save Nodes]
#NodeNr Level


[Save Elements]
#ElemNr Level

