$MeshFormat
2.2 0 8
$EndMeshFormat
$PhysicalNames
1
3 1 "V_aluminium"
$EndPhysicalNames
$Nodes
272
1 0.005 0 0
2 0.01 0 0
3 0 0 -0.005
4 0 0 -0.01
5 -0.005 0 0
6 -0.01 0 0
7 0 0 0.005
8 0 0 0.01
9 0.005 0.001 0
10 0.01 0.001 0
11 0 0.001 -0.005
12 0 0.001 -0.01
13 -0.005 0.001 0
14 -0.01 0.001 0
15 0 0.001 0.005
16 0 0.001 0.01
17 -0.004000000000002424 0.001 0.0009999999999975757
18 -0.003000000000005199 0.001 0.001999999999994801
19 -0.002000000000005284 0.001 0.002999999999994717
20 -0.001000000000002726 0.001 0.003999999999997274
21 0.0009999999999975757 0.001 0.004000000000002424
22 0.001999999999994801 0.001 0.003000000000005199
23 0.002999999999994717 0.001 0.002000000000005284
24 0.003999999999997274 0.001 0.001000000000002726
25 0.004000000000002424 0.001 -0.0009999999999975757
26 0.003000000000005199 0.001 -0.001999999999994801
27 0.002000000000005284 0.001 -0.002999999999994717
28 0.001000000000002726 0.001 -0.003999999999997274
29 -0.0009999999999975757 0.001 -0.004000000000002424
30 -0.001999999999994801 0.001 -0.003000000000005199
31 -0.002999999999994717 0.001 -0.002000000000005284
32 -0.003999999999997274 0.001 -0.001000000000002726
33 0 0.001 -0.005999999999997358
34 0 0.001 -0.006999999999994514
35 0 0.001 -0.007999999999994583
36 0 0.001 -0.008999999999997291
37 0.005999999999997358 0.001 0
38 0.006999999999994514 0.001 0
39 0.007999999999994583 0.001 0
40 0.008999999999997291 0.001 0
41 0 0.001 0.005999999999997358
42 0 0.001 0.006999999999994514
43 0 0.001 0.007999999999994583
44 0 0.001 0.008999999999997291
45 -0.005999999999997358 0.001 0
46 -0.006999999999994514 0.001 0
47 -0.007999999999994583 0.001 0
48 -0.008999999999997291 0.001 0
49 -0.004000000000002424 0 -0.0009999999999975757
50 -0.003000000000005199 0 -0.001999999999994801
51 -0.002000000000005284 0 -0.002999999999994717
52 -0.001000000000002726 0 -0.003999999999997274
53 0.0009999999999975757 0 -0.004000000000002424
54 0.001999999999994801 0 -0.003000000000005199
55 0.002999999999994717 0 -0.002000000000005284
56 0.003999999999997274 0 -0.001000000000002726
57 0.004000000000002424 0 0.0009999999999975757
58 0.003000000000005199 0 0.001999999999994801
59 0.002000000000005284 0 0.002999999999994717
60 0.001000000000002726 0 0.003999999999997274
61 -0.0009999999999975757 0 0.004000000000002424
62 -0.001999999999994801 0 0.003000000000005199
63 -0.002999999999994717 0 0.002000000000005284
64 -0.003999999999997274 0 0.001000000000002726
65 -0.005999999999997358 0 0
66 -0.006999999999994514 0 0
67 -0.007999999999994583 0 0
68 -0.008999999999997291 0 0
69 0 0 -0.005999999999997358
70 0 0 -0.006999999999994514
71 0 0 -0.007999999999994583
72 0 0 -0.008999999999997291
73 0.005999999999997358 0 0
74 0.006999999999994514 0 0
75 0.007999999999994583 0 0
76 0.008999999999997291 0 0
77 0 0 0.005999999999997358
78 0 0 0.006999999999994514
79 0 0 0.007999999999994583
80 0 0 0.008999999999997291
81 0.009510565162954452 0.001 -0.003090169943740496
82 0.008090169943759233 0.001 -0.0058778525229113
83 0.005877852522936836 0.001 -0.008090169943740681
84 0.003090169943754298 0.001 -0.00951056516294997
85 -0.003090169943740496 0.001 -0.009510565162954452
86 -0.0058778525229113 0.001 -0.008090169943759233
87 -0.008090169943740681 0.001 -0.005877852522936836
88 -0.00951056516294997 0.001 -0.003090169943754298
89 -0.009510565162954452 0.001 0.003090169943740496
90 -0.008090169943759233 0.001 0.0058778525229113
91 -0.005877852522936836 0.001 0.008090169943740681
92 -0.003090169943754298 0.001 0.00951056516294997
93 0.003090169943740496 0.001 0.009510565162954452
94 0.0058778525229113 0.001 0.008090169943759233
95 0.008090169943740681 0.001 0.005877852522936836
96 0.00951056516294997 0.001 0.003090169943754298
97 0.009510565162954452 0 -0.003090169943740496
98 0.008090169943759233 0 -0.0058778525229113
99 0.005877852522936836 0 -0.008090169943740681
100 0.003090169943754298 0 -0.00951056516294997
101 -0.003090169943740496 0 -0.009510565162954452
102 -0.0058778525229113 0 -0.008090169943759233
103 -0.008090169943740681 0 -0.005877852522936836
104 -0.00951056516294997 0 -0.003090169943754298
105 -0.009510565162954452 0 0.003090169943740496
106 -0.008090169943759233 0 0.0058778525229113
107 -0.005877852522936836 0 0.008090169943740681
108 -0.003090169943754298 0 0.00951056516294997
109 0.003090169943740496 0 0.009510565162954452
110 0.0058778525229113 0 0.008090169943759233
111 0.008090169943740681 0 0.005877852522936836
112 0.00951056516294997 0 0.003090169943754298
113 -0.002999999999999697 0.001 -3.09051829266993e-15
114 -0.001999999999997178 0.001 -0.001000000000003551
115 -0.0009999999999962305 0.001 -0.002000000000002437
116 3.09051829266993e-15 0.001 -0.002999999999999697
117 -0.002000000000002436 0.001 0.0009999999999962309
118 -0.0009999999999999155 0.001 -2.096630161152468e-15
119 2.096413320717971e-15 0.001 -0.000999999999999915
120 0.001000000000003551 0.001 -0.001999999999997177
121 -0.001000000000003551 0.001 0.001999999999997177
122 -2.096630161152468e-15 0.001 0.0009999999999999159
123 0.0009999999999999168 0.001 2.09728068245596e-15
124 0.002000000000002437 0.001 -0.0009999999999962307
125 -3.089867771366439e-15 0.001 0.002999999999999698
126 0.0009999999999962307 0.001 0.002000000000002437
127 0.001999999999997179 0.001 0.001000000000003551
128 0.002999999999999698 0.001 3.089867771366439e-15
129 -0.005102113032589921 0.001 0.00141803398874524
130 -0.006204226065177194 0.001 0.001836067977492726
131 -0.007306339097767676 0.001 0.002254101966241341
132 -0.008408452130361066 0.001 0.002672135954990964
133 -0.004018033988753304 0.001 0.002775570504576073
134 -0.005036067977501211 0.001 0.003551141009157177
135 -0.006054101966252088 0.001 0.004326711513740529
136 -0.007072135955005658 0.001 0.00510228201832592
137 -0.002775570504589673 0.001 0.004018033988741149
138 -0.003551141009173842 0.001 0.00503606797748741
139 -0.004326711513760206 0.001 0.006054101966236674
140 -0.005102282018348553 0.001 0.00707213595498866
141 -0.00141803398875229 0.001 0.005102113032584906
142 -0.001836067977501591 0.001 0.006204226065172314
143 -0.002254101966251934 0.001 0.007306339097762928
144 -0.002672135955003206 0.001 0.008408452130356448
145 -0.005102113032584907 0.0009999999999999998 -0.001418033988752289
146 -0.004018033988741149 0.001 -0.002775570504589672
147 -0.002775570504576073 0.001 -0.004018033988753304
148 -0.00141803398874524 0.001 -0.00510211303258992
149 -0.006204226065172312 0.001 -0.001836067977501591
150 -0.005036067977487413 0.001 -0.003551141009173841
151 -0.003551141009157176 0.001 -0.00503606797750121
152 -0.001836067977492725 0.001 -0.006204226065177194
153 -0.007306339097762925 0.001 -0.002254101966251935
154 -0.006054101966236675 0.001 -0.004326711513760205
155 -0.004326711513740529 0.001 -0.006054101966252087
156 -0.002254101966241339 0.001 -0.007306339097767674
157 -0.00840845213035645 0.001 -0.002672135955003206
158 -0.00707213595498866 0.001 -0.00510228201834855
159 -0.00510228201832592 0.001 -0.007072135955005658
160 -0.002672135954990965 0.001 -0.008408452130361064
161 0.001418033988752289 0.0009999999999999998 -0.005102113032584907
162 0.002775570504589672 0.001 -0.004018033988741149
163 0.004018033988753304 0.001 -0.002775570504576073
164 0.00510211303258992 0.001 -0.00141803398874524
165 0.001836067977501591 0.001 -0.006204226065172312
166 0.003551141009173841 0.001 -0.005036067977487413
167 0.00503606797750121 0.001 -0.003551141009157176
168 0.006204226065177194 0.001 -0.001836067977492725
169 0.002254101966251935 0.001 -0.007306339097762925
170 0.004326711513760205 0.001 -0.006054101966236675
171 0.006054101966252087 0.001 -0.004326711513740529
172 0.007306339097767674 0.001 -0.002254101966241339
173 0.002672135955003206 0.001 -0.00840845213035645
174 0.00510228201834855 0.001 -0.00707213595498866
175 0.007072135955005658 0.001 -0.00510228201832592
176 0.008408452130361064 0.001 -0.002672135954990965
177 0.005102113032584907 0.0009999999999999998 0.001418033988752289
178 0.004018033988741149 0.001 0.002775570504589672
179 0.002775570504576073 0.001 0.004018033988753304
180 0.00141803398874524 0.001 0.00510211303258992
181 0.006204226065172312 0.001 0.001836067977501591
182 0.005036067977487413 0.001 0.003551141009173841
183 0.003551141009157176 0.001 0.00503606797750121
184 0.001836067977492725 0.001 0.006204226065177194
185 0.007306339097762925 0.001 0.002254101966251935
186 0.006054101966236675 0.001 0.004326711513760205
187 0.004326711513740529 0.001 0.006054101966252087
188 0.002254101966241339 0.001 0.007306339097767674
189 0.00840845213035645 0.001 0.002672135955003206
190 0.00707213595498866 0.001 0.00510228201834855
191 0.00510228201832592 0.001 0.007072135955005658
192 0.002672135954990965 0.001 0.008408452130361064
193 -0.002999999999999697 0 3.09051829266993e-15
194 -0.001999999999997178 0 0.001000000000003551
195 -0.0009999999999962305 0 0.002000000000002437
196 3.09051829266993e-15 0 0.002999999999999697
197 -0.002000000000002436 0 -0.0009999999999962309
198 -0.0009999999999999155 0 2.096630161152468e-15
199 2.096413320717971e-15 0 0.000999999999999915
200 0.001000000000003551 0 0.001999999999997177
201 -0.001000000000003551 0 -0.001999999999997177
202 -2.096630161152468e-15 0 -0.0009999999999999159
203 0.0009999999999999168 0 -2.09728068245596e-15
204 0.002000000000002437 0 0.0009999999999962307
205 -3.089867771366439e-15 0 -0.002999999999999698
206 0.0009999999999962307 0 -0.002000000000002437
207 0.001999999999997179 0 -0.001000000000003551
208 0.002999999999999698 0 -3.089867771366439e-15
209 0.001418033988746531 0 -0.005102113032589002
210 0.001836067977496044 0 -0.006204226065175368
211 0.002254101966247419 0 -0.007306339097764952
212 0.002672135955000538 0 -0.008408452130357458
213 0.002775570504578701 0 -0.004018033988750955
214 0.003551141009163675 0 -0.005036067977495831
215 0.004326711513752133 0 -0.006054101966242998
216 0.005102282018343868 0 -0.007072135954992176
217 0.004018033988743498 0 -0.002775570504587044
218 0.005036067977492792 0 -0.003551141009167345
219 0.006054101966245761 0 -0.004326711513748603
220 0.00707213595500214 0 -0.005102282018330604
221 0.005102113032585824 0 -0.001418033988750999
222 0.006204226065174141 0 -0.001836067977498274
223 0.00730633909776565 0 -0.002254101966245858
224 0.008408452130360058 0 -0.002672135954993634
225 0.002672135954993632 0 0.00840845213036006
226 0.002254101966245857 0 0.007306339097765651
227 0.001836067977498275 0 0.006204226065174139
228 0.001418033988750997 0 0.005102113032585823
229 0.005102282018330604 0 0.007072135955002141
230 0.004326711513748601 0 0.006054101966245765
231 0.003551141009167346 0 0.005036067977492792
232 0.002775570504587043 0 0.004018033988743498
233 0.007072135954992176 0 0.005102282018343868
234 0.006054101966242997 0 0.004326711513752135
235 0.005036067977495831 0 0.003551141009163674
236 0.004018033988750955 0 0.0027755705045787
237 0.008408452130357454 0 0.00267213595500054
238 0.00730633909776495 0 0.002254101966247419
239 0.006204226065175368 0 0.001836067977496044
240 0.005102113032589001 0 0.001418033988746531
241 -0.001418033988746531 0 0.005102113032589003
242 -0.002775570504578699 0 0.004018033988750956
243 -0.004018033988743497 0 0.002775570504587046
244 -0.005102113032585825 0 0.001418033988750997
245 -0.001836067977496044 0 0.006204226065175366
246 -0.003551141009163673 0 0.005036067977495832
247 -0.005036067977492791 0 0.003551141009167343
248 -0.006204226065174141 0 0.001836067977498274
249 -0.002254101966247417 0 0.007306339097764949
250 -0.004326711513752132 0 0.006054101966242999
251 -0.006054101966245761 0 0.004326711513748603
252 -0.007306339097765649 0 0.002254101966245857
253 -0.002672135955000538 0 0.008408452130357454
254 -0.005102282018343868 0 0.007072135954992176
255 -0.00707213595500214 0 0.005102282018330604
256 -0.008408452130360058 0 0.002672135954993634
257 -0.005102113032589002 0 -0.001418033988746531
258 -0.006204226065175368 0 -0.001836067977496044
259 -0.007306339097764952 0 -0.002254101966247419
260 -0.008408452130357458 0 -0.002672135955000538
261 -0.004018033988750955 0 -0.002775570504578701
262 -0.005036067977495831 0 -0.003551141009163675
263 -0.006054101966242998 0 -0.004326711513752133
264 -0.007072135954992176 0 -0.005102282018343868
265 -0.002775570504587044 0 -0.004018033988743498
266 -0.003551141009167345 0 -0.005036067977492792
267 -0.004326711513748603 0 -0.006054101966245761
268 -0.005102282018330604 0 -0.00707213595500214
269 -0.001418033988750999 0 -0.005102113032585824
270 -0.001836067977498274 0 -0.006204226065174141
271 -0.002254101966245858 0 -0.00730633909776565
272 -0.002672135954993634 0 -0.008408452130360058
$EndNodes
$Elements
125
1 5 2 1 78 13 45 145 32 5 65 257 49
2 5 2 1 78 32 145 146 31 49 257 261 50
3 5 2 1 78 31 146 147 30 50 261 265 51
4 5 2 1 78 30 147 148 29 51 265 269 52
5 5 2 1 78 29 148 33 11 52 269 69 3
6 5 2 1 78 45 46 149 145 65 66 258 257
7 5 2 1 78 145 149 150 146 257 258 262 261
8 5 2 1 78 146 150 151 147 261 262 266 265
9 5 2 1 78 147 151 152 148 265 266 270 269
10 5 2 1 78 148 152 34 33 269 270 70 69
11 5 2 1 78 46 47 153 149 66 67 259 258
12 5 2 1 78 149 153 154 150 258 259 263 262
13 5 2 1 78 150 154 155 151 262 263 267 266
14 5 2 1 78 151 155 156 152 266 267 271 270
15 5 2 1 78 152 156 35 34 270 271 71 70
16 5 2 1 78 47 48 157 153 67 68 260 259
17 5 2 1 78 153 157 158 154 259 260 264 263
18 5 2 1 78 154 158 159 155 263 264 268 267
19 5 2 1 78 155 159 160 156 267 268 272 271
20 5 2 1 78 156 160 36 35 271 272 72 71
21 5 2 1 78 48 14 88 157 68 6 104 260
22 5 2 1 78 157 88 87 158 260 104 103 264
23 5 2 1 78 158 87 86 159 264 103 102 268
24 5 2 1 78 159 86 85 160 268 102 101 272
25 5 2 1 78 160 85 12 36 272 101 4 72
26 5 2 1 80 7 15 20 61 77 41 141 241
27 5 2 1 80 77 41 141 241 78 42 142 245
28 5 2 1 80 78 42 142 245 79 43 143 249
29 5 2 1 80 79 43 143 249 80 44 144 253
30 5 2 1 80 80 44 144 253 8 16 92 108
31 5 2 1 80 61 20 19 62 241 141 137 242
32 5 2 1 80 241 141 137 242 245 142 138 246
33 5 2 1 80 245 142 138 246 249 143 139 250
34 5 2 1 80 249 143 139 250 253 144 140 254
35 5 2 1 80 253 144 140 254 108 92 91 107
36 5 2 1 80 62 19 18 63 242 137 133 243
37 5 2 1 80 242 137 133 243 246 138 134 247
38 5 2 1 80 246 138 134 247 250 139 135 251
39 5 2 1 80 250 139 135 251 254 140 136 255
40 5 2 1 80 254 140 136 255 107 91 90 106
41 5 2 1 80 63 18 17 64 243 133 129 244
42 5 2 1 80 243 133 129 244 247 134 130 248
43 5 2 1 80 247 134 130 248 251 135 131 252
44 5 2 1 80 251 135 131 252 255 136 132 256
45 5 2 1 80 255 136 132 256 106 90 89 105
46 5 2 1 80 64 17 13 5 244 129 45 65
47 5 2 1 80 244 129 45 65 248 130 46 66
48 5 2 1 80 248 130 46 66 252 131 47 67
49 5 2 1 80 252 131 47 67 256 132 48 68
50 5 2 1 80 256 132 48 68 105 89 14 6
51 5 2 1 82 7 15 41 77 60 21 180 228
52 5 2 1 82 60 21 180 228 59 22 179 232
53 5 2 1 82 59 22 179 232 58 23 178 236
54 5 2 1 82 58 23 178 236 57 24 177 240
55 5 2 1 82 57 24 177 240 1 9 37 73
56 5 2 1 82 77 41 42 78 228 180 184 227
57 5 2 1 82 228 180 184 227 232 179 183 231
58 5 2 1 82 232 179 183 231 236 178 182 235
59 5 2 1 82 236 178 182 235 240 177 181 239
60 5 2 1 82 240 177 181 239 73 37 38 74
61 5 2 1 82 78 42 43 79 227 184 188 226
62 5 2 1 82 227 184 188 226 231 183 187 230
63 5 2 1 82 231 183 187 230 235 182 186 234
64 5 2 1 82 235 182 186 234 239 181 185 238
65 5 2 1 82 239 181 185 238 74 38 39 75
66 5 2 1 82 79 43 44 80 226 188 192 225
67 5 2 1 82 226 188 192 225 230 187 191 229
68 5 2 1 82 230 187 191 229 234 186 190 233
69 5 2 1 82 234 186 190 233 238 185 189 237
70 5 2 1 82 238 185 189 237 75 39 40 76
71 5 2 1 82 80 44 16 8 225 192 93 109
72 5 2 1 82 225 192 93 109 229 191 94 110
73 5 2 1 82 229 191 94 110 233 190 95 111
74 5 2 1 82 233 190 95 111 237 189 96 112
75 5 2 1 82 237 189 96 112 76 40 10 2
76 5 2 1 84 40 10 2 76 176 81 97 224
77 5 2 1 84 176 81 97 224 175 82 98 220
78 5 2 1 84 175 82 98 220 174 83 99 216
79 5 2 1 84 174 83 99 216 173 84 100 212
80 5 2 1 84 173 84 100 212 36 12 4 72
81 5 2 1 84 39 40 76 75 172 176 224 223
82 5 2 1 84 172 176 224 223 171 175 220 219
83 5 2 1 84 171 175 220 219 170 174 216 215
84 5 2 1 84 170 174 216 215 169 173 212 211
85 5 2 1 84 169 173 212 211 35 36 72 71
86 5 2 1 84 38 39 75 74 168 172 223 222
87 5 2 1 84 168 172 223 222 167 171 219 218
88 5 2 1 84 167 171 219 218 166 170 215 214
89 5 2 1 84 166 170 215 214 165 169 211 210
90 5 2 1 84 165 169 211 210 34 35 71 70
91 5 2 1 84 37 38 74 73 164 168 222 221
92 5 2 1 84 164 168 222 221 163 167 218 217
93 5 2 1 84 163 167 218 217 162 166 214 213
94 5 2 1 84 162 166 214 213 161 165 210 209
95 5 2 1 84 161 165 210 209 33 34 70 69
96 5 2 1 84 9 37 73 1 25 164 221 56
97 5 2 1 84 25 164 221 56 26 163 217 55
98 5 2 1 84 26 163 217 55 27 162 213 54
99 5 2 1 84 27 162 213 54 28 161 209 53
100 5 2 1 84 28 161 209 53 11 33 69 3
101 5 2 1 86 15 21 60 7 20 125 196 61
102 5 2 1 86 20 125 196 61 19 121 195 62
103 5 2 1 86 19 121 195 62 18 117 194 63
104 5 2 1 86 18 117 194 63 17 113 193 64
105 5 2 1 86 17 113 193 64 13 32 49 5
106 5 2 1 86 21 22 59 60 125 126 200 196
107 5 2 1 86 125 126 200 196 121 122 199 195
108 5 2 1 86 121 122 199 195 117 118 198 194
109 5 2 1 86 117 118 198 194 113 114 197 193
110 5 2 1 86 113 114 197 193 32 31 50 49
111 5 2 1 86 22 23 58 59 126 127 204 200
112 5 2 1 86 126 127 204 200 122 123 203 199
113 5 2 1 86 122 123 203 199 118 119 202 198
114 5 2 1 86 118 119 202 198 114 115 201 197
115 5 2 1 86 114 115 201 197 31 30 51 50
116 5 2 1 86 23 24 57 58 127 128 208 204
117 5 2 1 86 127 128 208 204 123 124 207 203
118 5 2 1 86 123 124 207 203 119 120 206 202
119 5 2 1 86 119 120 206 202 115 116 205 201
120 5 2 1 86 115 116 205 201 30 29 52 51
121 5 2 1 86 24 9 1 57 128 25 56 208
122 5 2 1 86 128 25 56 208 124 26 55 207
123 5 2 1 86 124 26 55 207 120 27 54 206
124 5 2 1 86 120 27 54 206 116 28 53 205
125 5 2 1 86 116 28 53 205 29 11 3 52
$EndElements
