0.000000000000000000e+00 0.000000000000000000e+00
3.333333333333333547e-03 1.178197875575652587e+00
6.666666666666667095e-03 1.419476524202086809e+00
1.000000000000000021e-02 6.711367764821722925e-01
1.333333333333333419e-02 -2.219307205167157515e-01
1.666666666666666644e-02 -3.782612747106501860e-01
2.000000000000000042e-02 2.495066821070676955e-01
2.333333333333333440e-02 8.615972164666110267e-01
2.666666666666666838e-02 6.592194650087237484e-01
3.000000000000000236e-02 -3.073716893060541300e-01
3.333333333333333287e-02 -1.152091792603539666e+00
3.666666666666666685e-02 -1.023994265613268562e+00
